[7018, N]: SYSTEM_SERVER: warning: memory usage: 60 Meg
[7018, 0]: -- begin new backtrace (innermost first) [PARTIAL] ----------
[7018, 0]: NULL (0): ip = 0x2b5501fccca1 (0x10ca1), load module = /opt/apps/intel17/impi17_0/hpctoolkit/2016.12/lib/hpctoolkit/libhpcrun.so.0.0.0 | lip 
[7018, 0]: NULL (0): ip = 0x2b5502221b22 (0xfb22), load module = /opt/apps/intel17/impi17_0/hpctoolkit/2016.12/lib/hpctoolkit/ext-libs/libmonitor.so.0.0.0 | lip 
[7018, 0]: NULL (0): ip = 0x2b56ae231e91 (0x23e91), load module = /usr/lib64/libpsm2.so.2.1 | lip 
[7018, 0]: NULL (0): ip = 0x2b56ae23102a (0x2302a), load module = /usr/lib64/libpsm2.so.2.1 | lip 
[7018, 0]: NULL (0): ip = 0x2b56ae2206e4 (0x126e4), load module = /usr/lib64/libpsm2.so.2.1 | lip 
[7018, 0]: NULL (0): ip = 0x2b56ae21f132 (0x11132), load module = /usr/lib64/libpsm2.so.2.1 | lip 
[7018, 0]: NULL (0): ip = 0x2b56ae00d0cd (0x20cd), load module = /opt/intel/compilers_and_libraries_2017.4.196/linux/mpi/intel64/lib/libtmip_psm2.so.1.0 | lip 
[7018, 0]: NULL (0): ip = 0x2b5502f2fb46 (0x54cb46), load module = /opt/intel/compilers_and_libraries_2017.4.196/linux/mpi/intel64/lib/release_mt/libmpi.so.12.0 | lip 
[7018, 0]: NULL (0): ip = 0x2b5502f2e998 (0x54b998), load module = /opt/intel/compilers_and_libraries_2017.4.196/linux/mpi/intel64/lib/release_mt/libmpi.so.12.0 | lip 
[7018, 0]: NULL (0): ip = 0x2b5502da3016 (0x3c0016), load module = /opt/intel/compilers_and_libraries_2017.4.196/linux/mpi/intel64/lib/release_mt/libmpi.so.12.0 | lip 
[7018, 0]: NULL (0): ip = 0x2b5502da1818 (0x3be818), load module = /opt/intel/compilers_and_libraries_2017.4.196/linux/mpi/intel64/lib/release_mt/libmpi.so.12.0 | lip 
[7018, 0]: NULL (0): ip = 0x2b5502b1e961 (0x13b961), load module = /opt/intel/compilers_and_libraries_2017.4.196/linux/mpi/intel64/lib/release_mt/libmpi.so.12.0 | lip 
[7018, 0]: NULL (0): ip = 0x2b5502d8fece (0x3acece), load module = /opt/intel/compilers_and_libraries_2017.4.196/linux/mpi/intel64/lib/release_mt/libmpi.so.12.0 | lip 
[7018, 0]: NULL (0): ip = 0x2b5502d2611b (0x34311b), load module = /opt/intel/compilers_and_libraries_2017.4.196/linux/mpi/intel64/lib/release_mt/libmpi.so.12.0 | lip 
[7018, 0]: NULL (0): ip = 0x2b5502d1381b (0x33081b), load module = /opt/intel/compilers_and_libraries_2017.4.196/linux/mpi/intel64/lib/release_mt/libmpi.so.12.0 | lip 
[7018, 0]: NULL (0): ip = 0x2b55022198f7 (0x78f7), load module = /opt/apps/intel17/impi17_0/hpctoolkit/2016.12/lib/hpctoolkit/ext-libs/libmonitor.so.0.0.0 | lip 
[7018, 0]: NULL (0): ip = 0x4020e7 (0x4020e7), load module = /home1/05216/tg845159/cse6230fa17-ex05-vdubey8/ex05 | lip 
[7018, 0]: NULL (0): ip = 0x2b5504e5a6b6 (0x36b6), load module = /usr/lib64/libnss_files-2.17.so | lip 
[7018, 0]: NULL (0): ip = 0x2b5504e5b0c0 (0x40c0), load module = /usr/lib64/libnss_files-2.17.so | lip 
[7018, 0]: -- end backtrace ------------------------------------

[7018, 0]: unw_init: cursor could NOT build an interval for initial pc = 0x7ffc0033aca0
[7018, 0]: -- begin new backtrace (innermost first) [PARTIAL] ----------
[7018, 0]: NULL (0): ip = 0x7ffc0033aca0 (0x7ffc0033aca0), load module = (null) | lip 
[7018, 0]: -- end backtrace ------------------------------------

[7018, 0]: unw_init: cursor could NOT build an interval for initial pc = 0x7ffc0033acac
[7018, 0]: -- begin new backtrace (innermost first) [PARTIAL] ----------
[7018, 0]: NULL (0): ip = 0x7ffc0033acac (0x7ffc0033acac), load module = (null) | lip 
[7018, 0]: -- end backtrace ------------------------------------

MEMORY: segment size: 4.0 meg, num segments: 4, total allocation: 16.0 meg, reclaims: 0
MEMORY: total freeable: 0.0 meg, total non-freeable: 9.3 meg, malloc failures: 0
SAMPLE ANOMALIES: blocks: 0 (async: 0, dlopen: 0), errors: 2 (segv: 0, soft: 2)
SUMMARY: samples: 13845 (recorded: 13845, blocked: 0, errant: 2, trolled: 5, yielded: 0),
         frames: 97652 (trolled: 5)
         intervals: 9289 (suspicious: 2)
