[7175, N]: SYSTEM_SERVER: warning: memory usage: 59 Meg
[7175, 0]: -- begin new backtrace (innermost first) [PARTIAL] ----------
[7175, 0]: NULL (0): ip = 0x2b6c0b815ca1 (0x10ca1), load module = /opt/apps/intel17/impi17_0/hpctoolkit/2016.12/lib/hpctoolkit/libhpcrun.so.0.0.0 | lip 
[7175, 0]: NULL (0): ip = 0x2b6c0ba6ab22 (0xfb22), load module = /opt/apps/intel17/impi17_0/hpctoolkit/2016.12/lib/hpctoolkit/ext-libs/libmonitor.so.0.0.0 | lip 
[7175, 0]: NULL (0): ip = 0x2b6db7a7ae91 (0x23e91), load module = /usr/lib64/libpsm2.so.2.1 | lip 
[7175, 0]: NULL (0): ip = 0x2b6db7a7a02a (0x2302a), load module = /usr/lib64/libpsm2.so.2.1 | lip 
[7175, 0]: NULL (0): ip = 0x2b6db7a696e4 (0x126e4), load module = /usr/lib64/libpsm2.so.2.1 | lip 
[7175, 0]: NULL (0): ip = 0x2b6db7a68132 (0x11132), load module = /usr/lib64/libpsm2.so.2.1 | lip 
[7175, 0]: NULL (0): ip = 0x2b6db78560cd (0x20cd), load module = /opt/intel/compilers_and_libraries_2017.4.196/linux/mpi/intel64/lib/libtmip_psm2.so.1.0 | lip 
[7175, 0]: NULL (0): ip = 0x2b6c0c778b46 (0x54cb46), load module = /opt/intel/compilers_and_libraries_2017.4.196/linux/mpi/intel64/lib/release_mt/libmpi.so.12.0 | lip 
[7175, 0]: NULL (0): ip = 0x2b6c0c777998 (0x54b998), load module = /opt/intel/compilers_and_libraries_2017.4.196/linux/mpi/intel64/lib/release_mt/libmpi.so.12.0 | lip 
[7175, 0]: NULL (0): ip = 0x2b6c0c5ec016 (0x3c0016), load module = /opt/intel/compilers_and_libraries_2017.4.196/linux/mpi/intel64/lib/release_mt/libmpi.so.12.0 | lip 
[7175, 0]: NULL (0): ip = 0x2b6c0c5ea818 (0x3be818), load module = /opt/intel/compilers_and_libraries_2017.4.196/linux/mpi/intel64/lib/release_mt/libmpi.so.12.0 | lip 
[7175, 0]: NULL (0): ip = 0x2b6c0c367961 (0x13b961), load module = /opt/intel/compilers_and_libraries_2017.4.196/linux/mpi/intel64/lib/release_mt/libmpi.so.12.0 | lip 
[7175, 0]: NULL (0): ip = 0x2b6c0c5d8ece (0x3acece), load module = /opt/intel/compilers_and_libraries_2017.4.196/linux/mpi/intel64/lib/release_mt/libmpi.so.12.0 | lip 
[7175, 0]: NULL (0): ip = 0x2b6c0c56f11b (0x34311b), load module = /opt/intel/compilers_and_libraries_2017.4.196/linux/mpi/intel64/lib/release_mt/libmpi.so.12.0 | lip 
[7175, 0]: NULL (0): ip = 0x2b6c0c55c81b (0x33081b), load module = /opt/intel/compilers_and_libraries_2017.4.196/linux/mpi/intel64/lib/release_mt/libmpi.so.12.0 | lip 
[7175, 0]: NULL (0): ip = 0x2b6c0ba628f7 (0x78f7), load module = /opt/apps/intel17/impi17_0/hpctoolkit/2016.12/lib/hpctoolkit/ext-libs/libmonitor.so.0.0.0 | lip 
[7175, 0]: NULL (0): ip = 0x4020e7 (0x4020e7), load module = /home1/05216/tg845159/cse6230fa17-ex05-vdubey8/ex05 | lip 
[7175, 0]: NULL (0): ip = 0x2b6c0e6a36b6 (0x36b6), load module = /usr/lib64/libnss_files-2.17.so | lip 
[7175, 0]: NULL (0): ip = 0x2b6c0e6a40c0 (0x40c0), load module = /usr/lib64/libnss_files-2.17.so | lip 
[7175, 0]: -- end backtrace ------------------------------------

[7175, 0]: unw_init: cursor could NOT build an interval for initial pc = 0x7fffc49f9d39
[7175, 0]: -- begin new backtrace (innermost first) [PARTIAL] ----------
[7175, 0]: NULL (0): ip = 0x7fffc49f9d39 (0x7fffc49f9d39), load module = (null) | lip 
[7175, 0]: -- end backtrace ------------------------------------

MEMORY: segment size: 4.0 meg, num segments: 4, total allocation: 16.0 meg, reclaims: 0
MEMORY: total freeable: 0.0 meg, total non-freeable: 9.4 meg, malloc failures: 0
SAMPLE ANOMALIES: blocks: 0 (async: 0, dlopen: 0), errors: 1 (segv: 0, soft: 1)
SUMMARY: samples: 8537 (recorded: 8537, blocked: 0, errant: 1, trolled: 2, yielded: 0),
         frames: 69315 (trolled: 2)
         intervals: 10436 (suspicious: 2)
