[6961, N]: SYSTEM_SERVER: warning: memory usage: 60 Meg
[6961, 0]: -- begin new backtrace (innermost first) [PARTIAL] ----------
[6961, 0]: NULL (0): ip = 0x2b34a132cca1 (0x10ca1), load module = /opt/apps/intel17/impi17_0/hpctoolkit/2016.12/lib/hpctoolkit/libhpcrun.so.0.0.0 | lip 
[6961, 0]: NULL (0): ip = 0x2b34a1581b22 (0xfb22), load module = /opt/apps/intel17/impi17_0/hpctoolkit/2016.12/lib/hpctoolkit/ext-libs/libmonitor.so.0.0.0 | lip 
[6961, 0]: NULL (0): ip = 0x2b364d591e91 (0x23e91), load module = /usr/lib64/libpsm2.so.2.1 | lip 
[6961, 0]: NULL (0): ip = 0x2b364d59102a (0x2302a), load module = /usr/lib64/libpsm2.so.2.1 | lip 
[6961, 0]: NULL (0): ip = 0x2b364d5806e4 (0x126e4), load module = /usr/lib64/libpsm2.so.2.1 | lip 
[6961, 0]: NULL (0): ip = 0x2b364d57f132 (0x11132), load module = /usr/lib64/libpsm2.so.2.1 | lip 
[6961, 0]: NULL (0): ip = 0x2b364d36d0cd (0x20cd), load module = /opt/intel/compilers_and_libraries_2017.4.196/linux/mpi/intel64/lib/libtmip_psm2.so.1.0 | lip 
[6961, 0]: NULL (0): ip = 0x2b34a228fb46 (0x54cb46), load module = /opt/intel/compilers_and_libraries_2017.4.196/linux/mpi/intel64/lib/release_mt/libmpi.so.12.0 | lip 
[6961, 0]: NULL (0): ip = 0x2b34a228e998 (0x54b998), load module = /opt/intel/compilers_and_libraries_2017.4.196/linux/mpi/intel64/lib/release_mt/libmpi.so.12.0 | lip 
[6961, 0]: NULL (0): ip = 0x2b34a2103016 (0x3c0016), load module = /opt/intel/compilers_and_libraries_2017.4.196/linux/mpi/intel64/lib/release_mt/libmpi.so.12.0 | lip 
[6961, 0]: NULL (0): ip = 0x2b34a2101818 (0x3be818), load module = /opt/intel/compilers_and_libraries_2017.4.196/linux/mpi/intel64/lib/release_mt/libmpi.so.12.0 | lip 
[6961, 0]: NULL (0): ip = 0x2b34a1e7e961 (0x13b961), load module = /opt/intel/compilers_and_libraries_2017.4.196/linux/mpi/intel64/lib/release_mt/libmpi.so.12.0 | lip 
[6961, 0]: NULL (0): ip = 0x2b34a20efece (0x3acece), load module = /opt/intel/compilers_and_libraries_2017.4.196/linux/mpi/intel64/lib/release_mt/libmpi.so.12.0 | lip 
[6961, 0]: NULL (0): ip = 0x2b34a208611b (0x34311b), load module = /opt/intel/compilers_and_libraries_2017.4.196/linux/mpi/intel64/lib/release_mt/libmpi.so.12.0 | lip 
[6961, 0]: NULL (0): ip = 0x2b34a207381b (0x33081b), load module = /opt/intel/compilers_and_libraries_2017.4.196/linux/mpi/intel64/lib/release_mt/libmpi.so.12.0 | lip 
[6961, 0]: NULL (0): ip = 0x2b34a15798f7 (0x78f7), load module = /opt/apps/intel17/impi17_0/hpctoolkit/2016.12/lib/hpctoolkit/ext-libs/libmonitor.so.0.0.0 | lip 
[6961, 0]: NULL (0): ip = 0x4020e7 (0x4020e7), load module = /home1/05216/tg845159/cse6230fa17-ex05-vdubey8/ex05 | lip 
[6961, 0]: NULL (0): ip = 0x2b34a362352e (0x7852e), load module = /usr/lib64/libc-2.17.so | lip 
[6961, 0]: -- end backtrace ------------------------------------

[6961, 0]: unw_init: cursor could NOT build an interval for initial pc = 0x7ffda9c43ca0
[6961, 0]: -- begin new backtrace (innermost first) [PARTIAL] ----------
[6961, 0]: NULL (0): ip = 0x7ffda9c43ca0 (0x7ffda9c43ca0), load module = (null) | lip 
[6961, 0]: -- end backtrace ------------------------------------

MEMORY: segment size: 4.0 meg, num segments: 4, total allocation: 16.0 meg, reclaims: 0
MEMORY: total freeable: 0.0 meg, total non-freeable: 8.8 meg, malloc failures: 0
SAMPLE ANOMALIES: blocks: 0 (async: 0, dlopen: 0), errors: 1 (segv: 0, soft: 1)
SUMMARY: samples: 13923 (recorded: 13923, blocked: 0, errant: 1, trolled: 15, yielded: 0),
         frames: 109135 (trolled: 15)
         intervals: 5082 (suspicious: 2)
