[6509, N]: SYSTEM_SERVER: warning: memory usage: 60 Meg
[6509, 0]: -- begin new backtrace (innermost first) [PARTIAL] ----------
[6509, 0]: NULL (0): ip = 0x2b7766531ca1 (0x10ca1), load module = /opt/apps/intel17/impi17_0/hpctoolkit/2016.12/lib/hpctoolkit/libhpcrun.so.0.0.0 | lip 
[6509, 0]: NULL (0): ip = 0x2b7766786b22 (0xfb22), load module = /opt/apps/intel17/impi17_0/hpctoolkit/2016.12/lib/hpctoolkit/ext-libs/libmonitor.so.0.0.0 | lip 
[6509, 0]: NULL (0): ip = 0x2b7912796e91 (0x23e91), load module = /usr/lib64/libpsm2.so.2.1 | lip 
[6509, 0]: NULL (0): ip = 0x2b791279602a (0x2302a), load module = /usr/lib64/libpsm2.so.2.1 | lip 
[6509, 0]: NULL (0): ip = 0x2b79127856e4 (0x126e4), load module = /usr/lib64/libpsm2.so.2.1 | lip 
[6509, 0]: NULL (0): ip = 0x2b7912784132 (0x11132), load module = /usr/lib64/libpsm2.so.2.1 | lip 
[6509, 0]: NULL (0): ip = 0x2b79125720cd (0x20cd), load module = /opt/intel/compilers_and_libraries_2017.4.196/linux/mpi/intel64/lib/libtmip_psm2.so.1.0 | lip 
[6509, 0]: NULL (0): ip = 0x2b7767494b46 (0x54cb46), load module = /opt/intel/compilers_and_libraries_2017.4.196/linux/mpi/intel64/lib/release_mt/libmpi.so.12.0 | lip 
[6509, 0]: NULL (0): ip = 0x2b7767493998 (0x54b998), load module = /opt/intel/compilers_and_libraries_2017.4.196/linux/mpi/intel64/lib/release_mt/libmpi.so.12.0 | lip 
[6509, 0]: NULL (0): ip = 0x2b7767308016 (0x3c0016), load module = /opt/intel/compilers_and_libraries_2017.4.196/linux/mpi/intel64/lib/release_mt/libmpi.so.12.0 | lip 
[6509, 0]: NULL (0): ip = 0x2b7767306818 (0x3be818), load module = /opt/intel/compilers_and_libraries_2017.4.196/linux/mpi/intel64/lib/release_mt/libmpi.so.12.0 | lip 
[6509, 0]: NULL (0): ip = 0x2b7767083961 (0x13b961), load module = /opt/intel/compilers_and_libraries_2017.4.196/linux/mpi/intel64/lib/release_mt/libmpi.so.12.0 | lip 
[6509, 0]: NULL (0): ip = 0x2b77672f4ece (0x3acece), load module = /opt/intel/compilers_and_libraries_2017.4.196/linux/mpi/intel64/lib/release_mt/libmpi.so.12.0 | lip 
[6509, 0]: NULL (0): ip = 0x2b776728b11b (0x34311b), load module = /opt/intel/compilers_and_libraries_2017.4.196/linux/mpi/intel64/lib/release_mt/libmpi.so.12.0 | lip 
[6509, 0]: NULL (0): ip = 0x2b776727881b (0x33081b), load module = /opt/intel/compilers_and_libraries_2017.4.196/linux/mpi/intel64/lib/release_mt/libmpi.so.12.0 | lip 
[6509, 0]: NULL (0): ip = 0x2b776677e8f7 (0x78f7), load module = /opt/apps/intel17/impi17_0/hpctoolkit/2016.12/lib/hpctoolkit/ext-libs/libmonitor.so.0.0.0 | lip 
[6509, 0]: NULL (0): ip = 0x4020e7 (0x4020e7), load module = /home1/05216/tg845159/cse6230fa17-ex05-vdubey8/ex05 | lip 
[6509, 0]: NULL (0): ip = 0x2b77688275a0 (0x775a0), load module = /usr/lib64/libc-2.17.so | lip 
[6509, 0]: NULL (0): ip = 0x2b776882852e (0x7852e), load module = /usr/lib64/libc-2.17.so | lip 
[6509, 0]: -- end backtrace ------------------------------------

MEMORY: segment size: 4.0 meg, num segments: 4, total allocation: 16.0 meg, reclaims: 0
MEMORY: total freeable: 0.0 meg, total non-freeable: 9.4 meg, malloc failures: 0
SAMPLE ANOMALIES: blocks: 0 (async: 0, dlopen: 0), errors: 0 (segv: 0, soft: 0)
SUMMARY: samples: 13833 (recorded: 13833, blocked: 0, errant: 0, trolled: 3, yielded: 0),
         frames: 99902 (trolled: 3)
         intervals: 10164 (suspicious: 2)
