[101472, N]: SYSTEM_SERVER: warning: memory usage: 60 Meg
[101472, 0]: -- begin new backtrace (innermost first) [PARTIAL] ----------
[101472, 0]: NULL (0): ip = 0x2b60dee84ca1 (0x10ca1), load module = /opt/apps/intel17/impi17_0/hpctoolkit/2016.12/lib/hpctoolkit/libhpcrun.so.0.0.0 | lip 
[101472, 0]: NULL (0): ip = 0x2b60df0d9b22 (0xfb22), load module = /opt/apps/intel17/impi17_0/hpctoolkit/2016.12/lib/hpctoolkit/ext-libs/libmonitor.so.0.0.0 | lip 
[101472, 0]: NULL (0): ip = 0x2b628b0e9e91 (0x23e91), load module = /usr/lib64/libpsm2.so.2.1 | lip 
[101472, 0]: NULL (0): ip = 0x2b628b0e902a (0x2302a), load module = /usr/lib64/libpsm2.so.2.1 | lip 
[101472, 0]: NULL (0): ip = 0x2b628b0d86e4 (0x126e4), load module = /usr/lib64/libpsm2.so.2.1 | lip 
[101472, 0]: NULL (0): ip = 0x2b628b0d7132 (0x11132), load module = /usr/lib64/libpsm2.so.2.1 | lip 
[101472, 0]: NULL (0): ip = 0x2b628aec50cd (0x20cd), load module = /opt/intel/compilers_and_libraries_2017.4.196/linux/mpi/intel64/lib/libtmip_psm2.so.1.0 | lip 
[101472, 0]: NULL (0): ip = 0x2b60dfde7b46 (0x54cb46), load module = /opt/intel/compilers_and_libraries_2017.4.196/linux/mpi/intel64/lib/release_mt/libmpi.so.12.0 | lip 
[101472, 0]: NULL (0): ip = 0x2b60dfde6998 (0x54b998), load module = /opt/intel/compilers_and_libraries_2017.4.196/linux/mpi/intel64/lib/release_mt/libmpi.so.12.0 | lip 
[101472, 0]: NULL (0): ip = 0x2b60dfc5b016 (0x3c0016), load module = /opt/intel/compilers_and_libraries_2017.4.196/linux/mpi/intel64/lib/release_mt/libmpi.so.12.0 | lip 
[101472, 0]: NULL (0): ip = 0x2b60dfc59818 (0x3be818), load module = /opt/intel/compilers_and_libraries_2017.4.196/linux/mpi/intel64/lib/release_mt/libmpi.so.12.0 | lip 
[101472, 0]: NULL (0): ip = 0x2b60df9d6961 (0x13b961), load module = /opt/intel/compilers_and_libraries_2017.4.196/linux/mpi/intel64/lib/release_mt/libmpi.so.12.0 | lip 
[101472, 0]: NULL (0): ip = 0x2b60dfc47ece (0x3acece), load module = /opt/intel/compilers_and_libraries_2017.4.196/linux/mpi/intel64/lib/release_mt/libmpi.so.12.0 | lip 
[101472, 0]: NULL (0): ip = 0x2b60dfbde11b (0x34311b), load module = /opt/intel/compilers_and_libraries_2017.4.196/linux/mpi/intel64/lib/release_mt/libmpi.so.12.0 | lip 
[101472, 0]: NULL (0): ip = 0x2b60dfbcb81b (0x33081b), load module = /opt/intel/compilers_and_libraries_2017.4.196/linux/mpi/intel64/lib/release_mt/libmpi.so.12.0 | lip 
[101472, 0]: NULL (0): ip = 0x2b60df0d18f7 (0x78f7), load module = /opt/apps/intel17/impi17_0/hpctoolkit/2016.12/lib/hpctoolkit/ext-libs/libmonitor.so.0.0.0 | lip 
[101472, 0]: NULL (0): ip = 0x4020e7 (0x4020e7), load module = /home1/05216/tg845159/cse6230fa17-ex05-vdubey8/ex05 | lip 
[101472, 0]: NULL (0): ip = 0x2b60e1d126b6 (0x36b6), load module = /usr/lib64/libnss_files-2.17.so | lip 
[101472, 0]: NULL (0): ip = 0x2b60e1d130c0 (0x40c0), load module = /usr/lib64/libnss_files-2.17.so | lip 
[101472, 0]: -- end backtrace ------------------------------------

MEMORY: segment size: 4.0 meg, num segments: 4, total allocation: 16.0 meg, reclaims: 0
MEMORY: total freeable: 0.0 meg, total non-freeable: 9.4 meg, malloc failures: 0
SAMPLE ANOMALIES: blocks: 0 (async: 0, dlopen: 0), errors: 0 (segv: 0, soft: 0)
SUMMARY: samples: 13639 (recorded: 13639, blocked: 0, errant: 0, trolled: 2, yielded: 0),
         frames: 92758 (trolled: 2)
         intervals: 10515 (suspicious: 2)
