[98878, N]: SYSTEM_SERVER: warning: memory usage: 59 Meg
[98878, 0]: -- begin new backtrace (innermost first) [PARTIAL] ----------
[98878, 0]: NULL (0): ip = 0x2b48d5716ca1 (0x10ca1), load module = /opt/apps/intel17/impi17_0/hpctoolkit/2016.12/lib/hpctoolkit/libhpcrun.so.0.0.0 | lip 
[98878, 0]: NULL (0): ip = 0x2b48d596bb22 (0xfb22), load module = /opt/apps/intel17/impi17_0/hpctoolkit/2016.12/lib/hpctoolkit/ext-libs/libmonitor.so.0.0.0 | lip 
[98878, 0]: NULL (0): ip = 0x2b4a8197be91 (0x23e91), load module = /usr/lib64/libpsm2.so.2.1 | lip 
[98878, 0]: NULL (0): ip = 0x2b4a8197b02a (0x2302a), load module = /usr/lib64/libpsm2.so.2.1 | lip 
[98878, 0]: NULL (0): ip = 0x2b4a8196a6e4 (0x126e4), load module = /usr/lib64/libpsm2.so.2.1 | lip 
[98878, 0]: NULL (0): ip = 0x2b4a81969132 (0x11132), load module = /usr/lib64/libpsm2.so.2.1 | lip 
[98878, 0]: NULL (0): ip = 0x2b4a817570cd (0x20cd), load module = /opt/intel/compilers_and_libraries_2017.4.196/linux/mpi/intel64/lib/libtmip_psm2.so.1.0 | lip 
[98878, 0]: NULL (0): ip = 0x2b48d6679b46 (0x54cb46), load module = /opt/intel/compilers_and_libraries_2017.4.196/linux/mpi/intel64/lib/release_mt/libmpi.so.12.0 | lip 
[98878, 0]: NULL (0): ip = 0x2b48d6678998 (0x54b998), load module = /opt/intel/compilers_and_libraries_2017.4.196/linux/mpi/intel64/lib/release_mt/libmpi.so.12.0 | lip 
[98878, 0]: NULL (0): ip = 0x2b48d64ed016 (0x3c0016), load module = /opt/intel/compilers_and_libraries_2017.4.196/linux/mpi/intel64/lib/release_mt/libmpi.so.12.0 | lip 
[98878, 0]: NULL (0): ip = 0x2b48d64eb818 (0x3be818), load module = /opt/intel/compilers_and_libraries_2017.4.196/linux/mpi/intel64/lib/release_mt/libmpi.so.12.0 | lip 
[98878, 0]: NULL (0): ip = 0x2b48d6268961 (0x13b961), load module = /opt/intel/compilers_and_libraries_2017.4.196/linux/mpi/intel64/lib/release_mt/libmpi.so.12.0 | lip 
[98878, 0]: NULL (0): ip = 0x2b48d64d9ece (0x3acece), load module = /opt/intel/compilers_and_libraries_2017.4.196/linux/mpi/intel64/lib/release_mt/libmpi.so.12.0 | lip 
[98878, 0]: NULL (0): ip = 0x2b48d647011b (0x34311b), load module = /opt/intel/compilers_and_libraries_2017.4.196/linux/mpi/intel64/lib/release_mt/libmpi.so.12.0 | lip 
[98878, 0]: NULL (0): ip = 0x2b48d645d81b (0x33081b), load module = /opt/intel/compilers_and_libraries_2017.4.196/linux/mpi/intel64/lib/release_mt/libmpi.so.12.0 | lip 
[98878, 0]: NULL (0): ip = 0x2b48d59638f7 (0x78f7), load module = /opt/apps/intel17/impi17_0/hpctoolkit/2016.12/lib/hpctoolkit/ext-libs/libmonitor.so.0.0.0 | lip 
[98878, 0]: NULL (0): ip = 0x4020e7 (0x4020e7), load module = /home1/05216/tg845159/cse6230fa17-ex05-vdubey8/ex05 | lip 
[98878, 0]: NULL (0): ip = 0x2b48d85a46b6 (0x36b6), load module = /usr/lib64/libnss_files-2.17.so | lip 
[98878, 0]: NULL (0): ip = 0x2b48d85a50c0 (0x40c0), load module = /usr/lib64/libnss_files-2.17.so | lip 
[98878, 0]: -- end backtrace ------------------------------------

[98878, 0]: unw_init: cursor could NOT build an interval for initial pc = 0x7fffd0564ca1
[98878, 0]: -- begin new backtrace (innermost first) [PARTIAL] ----------
[98878, 0]: NULL (0): ip = 0x7fffd0564ca1 (0x7fffd0564ca1), load module = (null) | lip 
[98878, 0]: -- end backtrace ------------------------------------

[98878, 0]: unw_init: cursor could NOT build an interval for initial pc = 0x7fffd0564ee8
[98878, 0]: -- begin new backtrace (innermost first) [PARTIAL] ----------
[98878, 0]: NULL (0): ip = 0x7fffd0564ee8 (0x7fffd0564ee8), load module = (null) | lip 
[98878, 0]: -- end backtrace ------------------------------------

MEMORY: segment size: 4.0 meg, num segments: 4, total allocation: 16.0 meg, reclaims: 0
MEMORY: total freeable: 0.0 meg, total non-freeable: 9.5 meg, malloc failures: 0
SAMPLE ANOMALIES: blocks: 0 (async: 0, dlopen: 0), errors: 2 (segv: 0, soft: 2)
SUMMARY: samples: 13647 (recorded: 13647, blocked: 0, errant: 2, trolled: 14, yielded: 0),
         frames: 91925 (trolled: 14)
         intervals: 10622 (suspicious: 2)
