[98792, N]: SYSTEM_SERVER: warning: memory usage: 60 Meg
[98792, 0]: -- begin new backtrace (innermost first) [PARTIAL] ----------
[98792, 0]: NULL (0): ip = 0x2b36e4f3dca1 (0x10ca1), load module = /opt/apps/intel17/impi17_0/hpctoolkit/2016.12/lib/hpctoolkit/libhpcrun.so.0.0.0 | lip 
[98792, 0]: NULL (0): ip = 0x2b36e5192b22 (0xfb22), load module = /opt/apps/intel17/impi17_0/hpctoolkit/2016.12/lib/hpctoolkit/ext-libs/libmonitor.so.0.0.0 | lip 
[98792, 0]: NULL (0): ip = 0x2b38911a2e91 (0x23e91), load module = /usr/lib64/libpsm2.so.2.1 | lip 
[98792, 0]: NULL (0): ip = 0x2b38911a202a (0x2302a), load module = /usr/lib64/libpsm2.so.2.1 | lip 
[98792, 0]: NULL (0): ip = 0x2b38911916e4 (0x126e4), load module = /usr/lib64/libpsm2.so.2.1 | lip 
[98792, 0]: NULL (0): ip = 0x2b3891190132 (0x11132), load module = /usr/lib64/libpsm2.so.2.1 | lip 
[98792, 0]: NULL (0): ip = 0x2b3890f7e0cd (0x20cd), load module = /opt/intel/compilers_and_libraries_2017.4.196/linux/mpi/intel64/lib/libtmip_psm2.so.1.0 | lip 
[98792, 0]: NULL (0): ip = 0x2b36e5ea0b46 (0x54cb46), load module = /opt/intel/compilers_and_libraries_2017.4.196/linux/mpi/intel64/lib/release_mt/libmpi.so.12.0 | lip 
[98792, 0]: NULL (0): ip = 0x2b36e5e9f998 (0x54b998), load module = /opt/intel/compilers_and_libraries_2017.4.196/linux/mpi/intel64/lib/release_mt/libmpi.so.12.0 | lip 
[98792, 0]: NULL (0): ip = 0x2b36e5d14016 (0x3c0016), load module = /opt/intel/compilers_and_libraries_2017.4.196/linux/mpi/intel64/lib/release_mt/libmpi.so.12.0 | lip 
[98792, 0]: NULL (0): ip = 0x2b36e5d12818 (0x3be818), load module = /opt/intel/compilers_and_libraries_2017.4.196/linux/mpi/intel64/lib/release_mt/libmpi.so.12.0 | lip 
[98792, 0]: NULL (0): ip = 0x2b36e5a8f961 (0x13b961), load module = /opt/intel/compilers_and_libraries_2017.4.196/linux/mpi/intel64/lib/release_mt/libmpi.so.12.0 | lip 
[98792, 0]: NULL (0): ip = 0x2b36e5d00ece (0x3acece), load module = /opt/intel/compilers_and_libraries_2017.4.196/linux/mpi/intel64/lib/release_mt/libmpi.so.12.0 | lip 
[98792, 0]: NULL (0): ip = 0x2b36e5c9711b (0x34311b), load module = /opt/intel/compilers_and_libraries_2017.4.196/linux/mpi/intel64/lib/release_mt/libmpi.so.12.0 | lip 
[98792, 0]: NULL (0): ip = 0x2b36e5c8481b (0x33081b), load module = /opt/intel/compilers_and_libraries_2017.4.196/linux/mpi/intel64/lib/release_mt/libmpi.so.12.0 | lip 
[98792, 0]: NULL (0): ip = 0x2b36e518a8f7 (0x78f7), load module = /opt/apps/intel17/impi17_0/hpctoolkit/2016.12/lib/hpctoolkit/ext-libs/libmonitor.so.0.0.0 | lip 
[98792, 0]: NULL (0): ip = 0x4020e7 (0x4020e7), load module = /home1/05216/tg845159/cse6230fa17-ex05-vdubey8/ex05 | lip 
[98792, 0]: NULL (0): ip = 0x2b36e7dcb6b6 (0x36b6), load module = /usr/lib64/libnss_files-2.17.so | lip 
[98792, 0]: NULL (0): ip = 0x2b36e7dcc0c0 (0x40c0), load module = /usr/lib64/libnss_files-2.17.so | lip 
[98792, 0]: -- end backtrace ------------------------------------

[98792, 0]: unw_init: cursor could NOT build an interval for initial pc = 0x7ffe5f91dca0
[98792, 0]: -- begin new backtrace (innermost first) [PARTIAL] ----------
[98792, 0]: NULL (0): ip = 0x7ffe5f91dca0 (0x7ffe5f91dca0), load module = (null) | lip 
[98792, 0]: -- end backtrace ------------------------------------

[98792, 0]: unw_init: cursor could NOT build an interval for initial pc = 0x7ffe5f91dcdf
[98792, 0]: -- begin new backtrace (innermost first) [PARTIAL] ----------
[98792, 0]: NULL (0): ip = 0x7ffe5f91dcdf (0x7ffe5f91dcdf), load module = (null) | lip 
[98792, 0]: -- end backtrace ------------------------------------

MEMORY: segment size: 4.0 meg, num segments: 4, total allocation: 16.0 meg, reclaims: 0
MEMORY: total freeable: 0.0 meg, total non-freeable: 9.5 meg, malloc failures: 0
SAMPLE ANOMALIES: blocks: 0 (async: 0, dlopen: 0), errors: 2 (segv: 0, soft: 2)
SUMMARY: samples: 13666 (recorded: 13666, blocked: 0, errant: 2, trolled: 14, yielded: 0),
         frames: 92896 (trolled: 14)
         intervals: 10559 (suspicious: 2)
